<?xml version="1.0" encoding="utf-8"?>
<!-- Generator: Adobe Illustrator 18.1.1, SVG Export Plug-In . SVG Version: 6.00 Build 0)  -->
<svg version="1.2" baseProfile="tiny" id="Layer_1" xmlns="http://www.w3.org/2000/svg" xmlns:xlink="http://www.w3.org/1999/xlink"
	 x="0px" y="0px" viewBox="0 0 100 25" xml:space="preserve">
<path fill="#FFF" d="M100,9.1L81.7,9l-0.1-0.7H82V8l-5.9-0.1V7.8l-2.4,0.1L73.2,8H69l0.8,0.2v0.7l-0.2,0.2h-0.9v0.3h-0.7V8.1h0.2
	V7.9l-2.6-0.1l-0.1,0.2l-0.1,0.6l-0.1,0.1L65,8.9l-0.2-0.1l-0.2-0.1V8.2l-0.1-0.2H64v0.9L63.8,9l-0.2,0.2h-0.3l-0.2,0.5L48.4,9.7
	l-0.3-0.2l-0.4-0.1L47,9.7l-0.1-1l-0.7,0.1v0.6v0.1l-0.1,0.2l-0.2,0.1h-0.1h-0.1c-0.1,0-0.2,0.1-0.2,0.2l-0.2,0.2l-0.1,0.2v3.4
	l0.2,0.1l0.1,0.3L45,14.4v1.2c0.1,1,0.2,1.8,0.3,2.7l0.9,3.1l0.5,1.6l0.2,0.2L40.8,25h-0.2v-0.2L40,22.6l-0.9-3.5l-0.3-2.4l-0.1-1
	l-0.4,0.1l-0.6-0.1H34l-1.3,0.1h-0.2c-0.2,0-0.3,0-0.4,0.1l-0.2,0.2L31,17.8l0.4,0.6l-0.1,0.1c-0.2,0.1-0.3,0.2-0.6,0.2l-0.3,0.2
	L30.3,19l-1.8,3.4v0.3l0.2,0.3l0.2,0.2l-0.2,0.4l-5.6-1.4l5-8.8l0.2-0.4l0.1-0.7l-0.2-0.7L27.8,11l-0.5-0.2L26,10.7v0.2h-0.4V8.6h-1
	l-0.1-0.4h-4l-1,0.7L15.7,9v0.4h-3.3v2.1h-2.3v0.9H9v-0.8l-3.8,2.3v-1.8l-4.7,2.2L0.4,15v0.1l-0.2,0.2L0,15.1V15L0.1,4.4h4.2
	l0.2,0.2l0.1,0.6l10.9,0.2l0.1,0.1l0.1,0.2l8.9,0.1l-0.1-0.4h1V5h0.3l0.1,0.3l1-0.1V4.7h1L28,4.8l2.7-4.2l0.1-0.2l0.3-0.2L31.5,0
	h0.2L45,1.4l0.4,0.1l0.7,0.4l0.4,0.7L46.7,3l-0.1,2.6l0.2-0.1L47,4.5l0.8,0.2V4.3h0.3V4.2l0.1-0.1l0.2-0.1l14.8,0.2l0.2,0.3V5h0.4
	l0.1,0.1l0.1,0.2l0.1,1h0.5l0.1-1.6L67,1.2L67.2,1c0.2-0.2,0.3-0.2,0.5-0.2c0.4,0.1,0.7,0.2,0.9,0.5l0.1,0.2v0.2v4.5h4.2l0.6,0.2
	l2.4-0.1V6.2h5.9V4.9h17.9L99.8,5v3.8L100,9.1 M68.1,3.6l-0.2-0.2l-0.2-0.5V2.5l-1-0.1l-1.4,2.2l0.2,0.2h2.7l0.2-0.2v-1H68.1
	 M65.5,6h2.6l0.1-0.4h-2.7L65.5,6 M45.4,2.1L45.4,2.1L34.2,2h-0.3l-0.4,0.2L33,2.6l-0.2,0.2l-0.6,1.6l0.2,0.2l12.8-0.1l0.2-0.1
	l0.3-0.2c0.3-0.2,0.5-0.6,0.5-1c0-0.4-0.2-0.7-0.5-1L45.4,2.1 M3.9,9.5H3.8h-3H0.6L0.5,9.8L0.6,10l0.1,0.1h3L3.8,10L4,9.8L3.9,9.5
	 M0.5,4.8v0.4h3.8V4.9L4.2,4.7L4.1,4.6L0.5,4.8 M37.3,12.4L37,12.3h-1.5L35,12.7c-0.2,0.3-0.3,0.6-0.4,1c0,0.3,0.1,0.6,0.3,0.9
	l0.4,0.3L35.2,15l-0.5-0.4c-0.3-0.3-0.6-0.6-0.6-1c0-0.2,0-0.5,0.2-0.8l0.2-0.4l-0.7,0.2c-0.5,0.3-0.7,0.8-0.6,1.4
	c0,0.3,0.2,0.6,0.6,1l0.5,0.4h3.6v-0.5l0.3-0.5c0.2-0.4,0.1-0.8-0.1-1.2L37.3,12.4"/>
</svg>
